…
``` r
# Ideology in English-speaking countries
mp_eng <- mp_main %>%
  filter(countryname %in% c("New Zealand", "United Kingdom", "United States",
                       "Canada", "Ireland", "Australia"))

mp_eng %>%
  group_by(countryname, decade) %>%
  summarize(a = sum(ideo))
```

    ## # A tibble: 42 x 3
    ## # Groups:   countryname [?]
    ##    countryname     decade        a
    ##          <chr>     <fctr>    <dbl>
    ##  1   Australia before1960  246.800
    ##  2   Australia      1960s   32.700
    ##  3   Australia      1970s  101.200
    ##  4   Australia      1980s  217.300
    ##  5   Australia      1990s  321.544
    ##  6   Australia      2000s   75.098
    ##  7   Australia      2010s   38.481
    ##  8      Canada before1960 -170.100
    ##  9      Canada      1960s -202.500
    ## 10      Canada      1970s  -57.600
    ## # ... with 32 more rows
…
